25000 2724 27801 4019 
2449 2851 53081 
4210 42731 5849 
25000 2724 4019 4148 
2449 53081 64801 66111 
2851 42731 5849 
1966 25000 2724 4019 
2449 4019 53081 
42731 5849 6930 
25000 2724 4019 5601 
2180 2449 53081 
42731 5849 99591 